…
## What is mean total number of steps taken per day?

1. Calculating steps per day


```r
steps_per_day <- amd %>% group_by(date) %>% summarise(total_steps=sum(steps, na.rm=TRUE))
steps_per_day
```

```
## # A tibble: 61 x 2
##    date       total_steps
##    <chr>            <int>
##  1 2012-10-01           0
##  2 2012-10-02         126
##  3 2012-10-03       11352
##  4 2012-10-04       12116
##  5 2012-10-05       13294
##  6 2012-10-06       15420
##  7 2012-10-07       11015
##  8 2012-10-08           0
##  9 2012-10-09       12811
## 10 2012-10-10        9900
## # ... with 51 more rows
```
…
## What is the average daily activity pattern?


```r
interval_data <- amd %>% group_by(interval) %>% summarise(steps_by_interval=sum(steps, na.rm=TRUE))
interval_data
```

```
## # A tibble: 288 x 2
##    interval steps_by_interval
##       <int>             <int>
##  1        0                91
##  2        5                18
##  3       10                 7
##  4       15                 8
##  5       20                 4
##  6       25               111
##  7       30                28
##  8       35                46
##  9       40                 0
## 10       45                78
## # ... with 278 more rows
```
…
```r
amd_na_replacing <- amd_na_replacing %>% group_by(interval) %>% summarise(mean_by_interval = mean(steps, na.rm=TRUE))
amd_na_replacing
```

```
## # A tibble: 288 x 2
##    interval mean_by_interval
##       <int>            <dbl>
##  1        0           1.72  
##  2        5           0.340 
##  3       10           0.132 
##  4       15           0.151 
##  5       20           0.0755
##  6       25           2.09  
##  7       30           0.528 
##  8       35           0.868 
##  9       40           0     
## 10       45           1.47  
## # ... with 278 more rows
```

```r
amd_merge <- merge(amd,amd_na_replacing, by = c("interval"))
amd_merge$steps <- ifelse(is.na(amd_merge$steps), amd_merge$mean_by_interval, amd_merge$steps)   
amd_merge <- amd_merge %>% group_by(date) %>% select(steps, date, interval)
amd_merge
```

```
## # A tibble: 17,568 x 3
## # Groups:   date [61]
##    steps date       interval
##    <dbl> <chr>         <int>
##  1  1.72 2012-10-01        0
##  2  0    2012-11-23        0
##  3  0    2012-10-28        0
##  4  0    2012-11-06        0
##  5  0    2012-11-24        0
##  6  0    2012-11-15        0
##  7  0    2012-10-20        0
##  8  0    2012-11-16        0
##  9  0    2012-11-07        0
## 10  0    2012-11-25        0
## # ... with 17,558 more rows
```

3. Create a new dataset that is equal to the original dataset but with the missing data filled in.


```r
amd_merge
```

```
## # A tibble: 17,568 x 3
## # Groups:   date [61]
##    steps date       interval
##    <dbl> <chr>         <int>
##  1  1.72 2012-10-01        0
##  2  0    2012-11-23        0
##  3  0    2012-10-28        0
##  4  0    2012-11-06        0
##  5  0    2012-11-24        0
##  6  0    2012-11-15        0
##  7  0    2012-10-20        0
##  8  0    2012-11-16        0
##  9  0    2012-11-07        0
## 10  0    2012-11-25        0
## # ... with 17,558 more rows
```
…
